Multivariate Analysis on a Census Data of district in India
…
## See spec(...) for full column specifications.

editpurposeys=data
editpurposeys

## # A tibble: 35 x 36
##    y1         y2     y3     y4     y5    y6    y7    y8     y9   y10   y11
##    <chr>   <int>  <int>  <int>  <int> <int> <int> <int>  <int> <int> <dbl>
##  1 Thiru~  98413 442709 224393 218316 52652 52996 52308  53815 14618 27.2 
##  2 Manal~  29078 139195  70015  69180 14053 13897 11299   9665  2055 21.3 
##  3 Madha~  53910 275941 143945 131996 29450 28945 21589  71033  8197 11.5 
##  4 Tondi~  78152 372737 189565 183172 41820 31437 30258 103463  1534  1.48
##  5 Royap~ 114760 511781 259640 252141 51044 50223 49874  69678  7170 10.3 
##  6 Thiru~ 124848 542132 277378 264754 52919 56987 51238  61025 14047 23.0 
##  7 Ambat~  56158 290815 153998 136817 25457 19734 15215  43464 10463 24.1 
##  8 Anna ~  61560 295413 149485 145928 27122 20476 20369  42967  9984 23.2 
##  9 Teyna~ 104303 455995 230856 225139 39941 20017 32896  57885  4882  8.43
## 10 Kodam~ 130893 554841 286794 268047 55414 45296 36575  46127  6769 14.7 
## # ... with 25 more rows, and 25 more variables: y12 <int>, y13 <int>,
## #   y14 <dbl>, y15 <int>, y16 <dbl>, y17 <int>, y18 <int>, y19 <int>,
## #   y20 <dbl>, y21 <int>, y22 <int>, y23 <int>, y24 <dbl>, y25 <int>,
## #   y26 <int>, y27 <int>, y28 <int>, y29 <int>, y30 <int>, y31 <int>,
## #   y32 <int>, y33 <int>, y34 <int>, y35 <int>, y36 <dbl>
…
